/*
WARNING: Do NOT edit the input and output ports in this file in a text
editor if you plan to continue editing the block that represents it in
the Block Editor! File corruption is VERY likely to occur.
*/
/*
Copyright (C) 1991-2013 Altera Corporation
Your use of Altera Corporation's design tools, logic functions 
and other software and tools, and its AMPP partner logic 
functions, and any output files from any of the foregoing 
(including device programming or simulation files), and any 
associated documentation or information are expressly subject 
to the terms and conditions of the Altera Program License 
Subscription Agreement, Altera MegaCore Function License 
Agreement, or other applicable license agreement, including, 
without limitation, that your use is for the sole purpose of 
programming logic devices manufactured by Altera and sold by 
Altera or its authorized distributors.  Please refer to the 
applicable agreement for further details.
*/
(header "graphic" (version "1.4"))
(pin
	(input)
	(rect 608 272 776 288)
	(text "INPUT" (rect 125 0 153 10)(font "Arial" (font_size 6)))
	(text "datas[319..0]" (rect 5 0 70 12)(font "Arial" ))
	(pt 168 8)
	(drawing
		(line (pt 84 12)(pt 109 12))
		(line (pt 84 4)(pt 109 4))
		(line (pt 113 8)(pt 168 8))
		(line (pt 84 12)(pt 84 4))
		(line (pt 109 4)(pt 113 8))
		(line (pt 109 12)(pt 113 8))
	)
	(text "VCC" (rect 128 7 148 17)(font "Arial" (font_size 6)))
)
(pin
	(input)
	(rect 608 288 776 304)
	(text "INPUT" (rect 125 0 153 10)(font "Arial" (font_size 6)))
	(text "weights[319..0]" (rect 5 0 80 12)(font "Arial" ))
	(pt 168 8)
	(drawing
		(line (pt 84 12)(pt 109 12))
		(line (pt 84 4)(pt 109 4))
		(line (pt 113 8)(pt 168 8))
		(line (pt 84 12)(pt 84 4))
		(line (pt 109 4)(pt 113 8))
		(line (pt 109 12)(pt 113 8))
	)
	(text "VCC" (rect 128 7 148 17)(font "Arial" (font_size 6)))
)
(pin
	(input)
	(rect 1128 312 1296 328)
	(text "INPUT" (rect 125 0 153 10)(font "Arial" (font_size 6)))
	(text "bias[15..0]" (rect 5 0 57 12)(font "Arial" ))
	(pt 168 8)
	(drawing
		(line (pt 84 12)(pt 109 12))
		(line (pt 84 4)(pt 109 4))
		(line (pt 113 8)(pt 168 8))
		(line (pt 84 12)(pt 84 4))
		(line (pt 109 4)(pt 113 8))
		(line (pt 109 12)(pt 113 8))
	)
	(text "VCC" (rect 128 7 148 17)(font "Arial" (font_size 6)))
)
(pin
	(output)
	(rect 2288 176 2464 192)
	(text "OUTPUT" (rect 1 0 39 10)(font "Arial" (font_size 6)))
	(text "result[15..0]" (rect 90 0 149 12)(font "Arial" ))
	(pt 0 8)
	(drawing
		(line (pt 0 8)(pt 52 8))
		(line (pt 52 4)(pt 78 4))
		(line (pt 52 12)(pt 78 12))
		(line (pt 52 12)(pt 52 4))
		(line (pt 78 4)(pt 82 8))
		(line (pt 82 8)(pt 78 12))
		(line (pt 78 12)(pt 82 8))
	)
)
(pin
	(output)
	(rect 2288 304 2464 320)
	(text "OUTPUT" (rect 1 0 39 10)(font "Arial" (font_size 6)))
	(text "ready" (rect 90 0 118 12)(font "Arial" ))
	(pt 0 8)
	(drawing
		(line (pt 0 8)(pt 52 8))
		(line (pt 52 4)(pt 78 4))
		(line (pt 52 12)(pt 78 12))
		(line (pt 52 12)(pt 52 4))
		(line (pt 78 4)(pt 82 8))
		(line (pt 82 8)(pt 78 12))
		(line (pt 78 12)(pt 82 8))
	)
)
(symbol
	(rect 792 232 1080 344)
	(text "InputSelector" (rect 5 0 69 12)(font "Arial" ))
	(text "input_selector" (rect 8 96 76 108)(font "Arial" ))
	(port
		(pt 0 32)
		(input)
		(text "addr[clog2_number_of_input-1..0]" (rect 0 0 165 12)(font "Arial" ))
		(text "addr[clog2_number_of_input-1..0]" (rect 21 27 186 39)(font "Arial" ))
		(line (pt 0 32)(pt 16 32)(line_width 3))
	)
	(port
		(pt 0 48)
		(input)
		(text "datas[number_of_input*n-1..0]" (rect 0 0 149 12)(font "Arial" ))
		(text "datas[number_of_input*n-1..0]" (rect 21 43 170 55)(font "Arial" ))
		(line (pt 0 48)(pt 16 48)(line_width 3))
	)
	(port
		(pt 0 64)
		(input)
		(text "weights[number_of_input*n-1..0]" (rect 0 0 159 12)(font "Arial" ))
		(text "weights[number_of_input*n-1..0]" (rect 21 59 180 71)(font "Arial" ))
		(line (pt 0 64)(pt 16 64)(line_width 3))
	)
	(port
		(pt 288 32)
		(output)
		(text "data[n-1..0]" (rect 0 0 56 12)(font "Arial" ))
		(text "data[n-1..0]" (rect 220 27 276 39)(font "Arial" ))
		(line (pt 288 32)(pt 272 32)(line_width 3))
	)
	(port
		(pt 288 48)
		(output)
		(text "weight[n-1..0]" (rect 0 0 66 12)(font "Arial" ))
		(text "weight[n-1..0]" (rect 212 43 278 55)(font "Arial" ))
		(line (pt 288 48)(pt 272 48)(line_width 3))
	)
	(parameter
		"n"
		"16"
		""
		(type "PARAMETER_SIGNED_DEC")	)
	(parameter
		"number_of_input"
		"20"
		""
		(type "PARAMETER_SIGNED_DEC")	)
	(parameter
		"clog2_number_of_input"
		"5"
		""
		(type "PARAMETER_SIGNED_DEC")	)
	(drawing
		(rectangle (rect 16 16 272 96))
	)
	(annotation_block (parameter)(rect 800 168 1054 224))
)
(symbol
	(rect 1440 248 1648 328)
	(text "Adder" (rect 5 0 33 12)(font "Arial" ))
	(text "adder" (rect 8 64 35 76)(font "Arial" ))
	(port
		(pt 0 32)
		(input)
		(text "operand1[n-1..0]" (rect 0 0 80 12)(font "Arial" ))
		(text "operand1[n-1..0]" (rect 21 27 101 39)(font "Arial" ))
		(line (pt 0 32)(pt 16 32)(line_width 3))
	)
	(port
		(pt 0 48)
		(input)
		(text "operand2[n-1..0]" (rect 0 0 80 12)(font "Arial" ))
		(text "operand2[n-1..0]" (rect 21 43 101 55)(font "Arial" ))
		(line (pt 0 48)(pt 16 48)(line_width 3))
	)
	(port
		(pt 208 32)
		(output)
		(text "result[n-1..0]" (rect 0 0 62 12)(font "Arial" ))
		(text "result[n-1..0]" (rect 135 27 197 39)(font "Arial" ))
		(line (pt 208 32)(pt 192 32)(line_width 3))
	)
	(parameter
		"n"
		"16"
		""
		(type "PARAMETER_SIGNED_DEC")	)
	(parameter
		"m"
		"6"
		""
		(type "PARAMETER_SIGNED_DEC")	)
	(drawing
		(rectangle (rect 16 16 192 64))
	)
	(annotation_block (parameter)(rect 1440 184 1622 226))
)
(symbol
	(rect 1880 200 2048 280)
	(text "ActivationFunction" (rect 5 0 97 12)(font "Arial" ))
	(text "activation_function_module" (rect 8 64 143 76)(font "Arial" ))
	(port
		(pt 0 32)
		(input)
		(text "in[n-1..0]" (rect 0 0 43 12)(font "Arial" ))
		(text "in[n-1..0]" (rect 21 27 64 39)(font "Arial" ))
		(line (pt 0 32)(pt 16 32)(line_width 3))
	)
	(port
		(pt 168 32)
		(output)
		(text "out[n-1..0]" (rect 0 0 50 12)(font "Arial" ))
		(text "out[n-1..0]" (rect 105 27 155 39)(font "Arial" ))
		(line (pt 168 32)(pt 152 32)(line_width 3))
	)
	(parameter
		"n"
		"16"
		""
		(type "PARAMETER_SIGNED_DEC")	)
	(parameter
		"m"
		"6"
		""
		(type "PARAMETER_SIGNED_DEC")	)
	(drawing
		(rectangle (rect 16 16 152 64))
	)
	(annotation_block (parameter)(rect 1880 296 2062 338))
)
(symbol
	(rect 512 328 776 440)
	(text "Controller" (rect 5 0 52 12)(font "Arial" ))
	(text "ctrl" (rect 8 96 23 108)(font "Arial" ))
	(port
		(pt 0 32)
		(input)
		(text "clk" (rect 0 0 14 12)(font "Arial" ))
		(text "clk" (rect 21 27 35 39)(font "Arial" ))
		(line (pt 0 32)(pt 16 32))
	)
	(port
		(pt 0 48)
		(input)
		(text "clk_en" (rect 0 0 31 12)(font "Arial" ))
		(text "clk_en" (rect 21 43 52 55)(font "Arial" ))
		(line (pt 0 48)(pt 16 48))
	)
	(port
		(pt 0 64)
		(input)
		(text "rst" (rect 0 0 12 12)(font "Arial" ))
		(text "rst" (rect 21 59 33 71)(font "Arial" ))
		(line (pt 0 64)(pt 16 64))
	)
	(port
		(pt 264 32)
		(output)
		(text "ready" (rect 0 0 28 12)(font "Arial" ))
		(text "ready" (rect 220 27 248 39)(font "Arial" ))
		(line (pt 264 32)(pt 248 32))
	)
	(port
		(pt 264 48)
		(output)
		(text "ctrl_rst" (rect 0 0 34 12)(font "Arial" ))
		(text "ctrl_rst" (rect 215 43 249 55)(font "Arial" ))
		(line (pt 264 48)(pt 248 48))
	)
	(port
		(pt 264 64)
		(output)
		(text "use_bias" (rect 0 0 43 12)(font "Arial" ))
		(text "use_bias" (rect 207 59 250 71)(font "Arial" ))
		(line (pt 264 64)(pt 248 64))
	)
	(port
		(pt 264 80)
		(output)
		(text "addr[clog2_number_of_input-1..0]" (rect 0 0 165 12)(font "Arial" ))
		(text "addr[clog2_number_of_input-1..0]" (rect 104 75 269 87)(font "Arial" ))
		(line (pt 264 80)(pt 248 80)(line_width 3))
	)
	(parameter
		"number_of_input"
		"20"
		""
		(type "PARAMETER_SIGNED_DEC")	)
	(parameter
		"clog2_number_of_input"
		"5"
		""
		(type "PARAMETER_SIGNED_DEC")	)
	(drawing
		(rectangle (rect 16 16 248 96))
	)
	(annotation_block (parameter)(rect 512 216 766 258))
)
(symbol
	(rect 1664 200 1864 312)
	(text "Reg" (rect 5 0 25 12)(font "Arial" ))
	(text "accumulate_reg" (rect 8 96 85 108)(font "Arial" ))
	(port
		(pt 0 32)
		(input)
		(text "clk" (rect 0 0 14 12)(font "Arial" ))
		(text "clk" (rect 21 27 35 39)(font "Arial" ))
		(line (pt 0 32)(pt 16 32))
	)
	(port
		(pt 0 48)
		(input)
		(text "ld_en" (rect 0 0 25 12)(font "Arial" ))
		(text "ld_en" (rect 21 43 46 55)(font "Arial" ))
		(line (pt 0 48)(pt 16 48))
	)
	(port
		(pt 0 64)
		(input)
		(text "rst" (rect 0 0 12 12)(font "Arial" ))
		(text "rst" (rect 21 59 33 71)(font "Arial" ))
		(line (pt 0 64)(pt 16 64))
	)
	(port
		(pt 0 80)
		(input)
		(text "parallel_in[n-1..0]" (rect 0 0 83 12)(font "Arial" ))
		(text "parallel_in[n-1..0]" (rect 21 75 104 87)(font "Arial" ))
		(line (pt 0 80)(pt 16 80)(line_width 3))
	)
	(port
		(pt 200 32)
		(output)
		(text "out[n-1..0]" (rect 0 0 50 12)(font "Arial" ))
		(text "out[n-1..0]" (rect 137 27 187 39)(font "Arial" ))
		(line (pt 200 32)(pt 184 32)(line_width 3))
	)
	(parameter
		"n"
		"16"
		""
		(type "PARAMETER_SIGNED_DEC")	)
	(drawing
		(rectangle (rect 16 16 184 96))
	)
	(annotation_block (parameter)(rect 1664 368 1846 396))
)
(symbol
	(rect 2080 152 2280 264)
	(text "Reg" (rect 5 0 25 12)(font "Arial" ))
	(text "result_reg" (rect 8 96 56 108)(font "Arial" ))
	(port
		(pt 0 32)
		(input)
		(text "clk" (rect 0 0 14 12)(font "Arial" ))
		(text "clk" (rect 21 27 35 39)(font "Arial" ))
		(line (pt 0 32)(pt 16 32))
	)
	(port
		(pt 0 48)
		(input)
		(text "ld_en" (rect 0 0 25 12)(font "Arial" ))
		(text "ld_en" (rect 21 43 46 55)(font "Arial" ))
		(line (pt 0 48)(pt 16 48))
	)
	(port
		(pt 0 64)
		(input)
		(text "rst" (rect 0 0 12 12)(font "Arial" ))
		(text "rst" (rect 21 59 33 71)(font "Arial" ))
		(line (pt 0 64)(pt 16 64))
	)
	(port
		(pt 0 80)
		(input)
		(text "parallel_in[n-1..0]" (rect 0 0 83 12)(font "Arial" ))
		(text "parallel_in[n-1..0]" (rect 21 75 104 87)(font "Arial" ))
		(line (pt 0 80)(pt 16 80)(line_width 3))
	)
	(port
		(pt 200 32)
		(output)
		(text "out[n-1..0]" (rect 0 0 50 12)(font "Arial" ))
		(text "out[n-1..0]" (rect 137 27 187 39)(font "Arial" ))
		(line (pt 200 32)(pt 184 32)(line_width 3))
	)
	(parameter
		"n"
		"16"
		""
		(type "PARAMETER_SIGNED_DEC")	)
	(drawing
		(rectangle (rect 16 16 184 96))
	)
	(annotation_block (parameter)(rect 1872 160 2054 188))
)
(symbol
	(rect 2080 280 2280 392)
	(text "Reg" (rect 5 0 25 12)(font "Arial" ))
	(text "ready_reg" (rect 8 96 57 108)(font "Arial" ))
	(port
		(pt 0 32)
		(input)
		(text "clk" (rect 0 0 14 12)(font "Arial" ))
		(text "clk" (rect 21 27 35 39)(font "Arial" ))
		(line (pt 0 32)(pt 16 32))
	)
	(port
		(pt 0 48)
		(input)
		(text "ld_en" (rect 0 0 25 12)(font "Arial" ))
		(text "ld_en" (rect 21 43 46 55)(font "Arial" ))
		(line (pt 0 48)(pt 16 48))
	)
	(port
		(pt 0 64)
		(input)
		(text "rst" (rect 0 0 12 12)(font "Arial" ))
		(text "rst" (rect 21 59 33 71)(font "Arial" ))
		(line (pt 0 64)(pt 16 64))
	)
	(port
		(pt 0 80)
		(input)
		(text "parallel_in[n-1..0]" (rect 0 0 83 12)(font "Arial" ))
		(text "parallel_in[n-1..0]" (rect 21 75 104 87)(font "Arial" ))
		(line (pt 0 80)(pt 16 80)(line_width 3))
	)
	(port
		(pt 200 32)
		(output)
		(text "out[n-1..0]" (rect 0 0 50 12)(font "Arial" ))
		(text "out[n-1..0]" (rect 137 27 187 39)(font "Arial" ))
		(line (pt 200 32)(pt 184 32)(line_width 3))
	)
	(parameter
		"n"
		"1"
		""
		(type "PARAMETER_SIGNED_DEC")	)
	(drawing
		(rectangle (rect 16 16 184 96))
	)
	(annotation_block (parameter)(rect 1872 368 2056 400))
)
(symbol
	(rect 1088 232 1296 312)
	(text "Multiplier" (rect 5 0 47 12)(font "Arial" ))
	(text "multiplier" (rect 8 64 51 76)(font "Arial" ))
	(port
		(pt 0 32)
		(input)
		(text "operand1[n-1..0]" (rect 0 0 80 12)(font "Arial" ))
		(text "operand1[n-1..0]" (rect 21 27 101 39)(font "Arial" ))
		(line (pt 0 32)(pt 16 32)(line_width 3))
	)
	(port
		(pt 0 48)
		(input)
		(text "operand2[n-1..0]" (rect 0 0 80 12)(font "Arial" ))
		(text "operand2[n-1..0]" (rect 21 43 101 55)(font "Arial" ))
		(line (pt 0 48)(pt 16 48)(line_width 3))
	)
	(port
		(pt 208 32)
		(output)
		(text "result[n-1..0]" (rect 0 0 62 12)(font "Arial" ))
		(text "result[n-1..0]" (rect 135 27 197 39)(font "Arial" ))
		(line (pt 208 32)(pt 192 32)(line_width 3))
	)
	(parameter
		"n"
		"16"
		""
		(type "PARAMETER_SIGNED_DEC")	)
	(parameter
		"m"
		"6"
		""
		(type "PARAMETER_SIGNED_DEC")	)
	(drawing
		(rectangle (rect 16 16 192 64))
	)
	(annotation_block (parameter)(rect 1088 168 1270 210))
)
(symbol
	(rect 1312 232 1424 320)
	(text "BUSMUX" (rect 28 0 91 16)(font "Arial" (font_size 10)))
	(text "adder_mux" (rect 3 77 66 91)(font "Arial" (font_size 8)))
	(port
		(pt 0 64)
		(input)
		(text "datab[WIDTH-1..0]" (rect 6 51 108 65)(font "Arial" (font_size 8)))
		(text "datab[]" (rect 6 51 44 65)(font "Arial" (font_size 8)))
		(line (pt 0 64)(pt 44 64)(line_width 3))
	)
	(port
		(pt 56 88)
		(input)
		(text "sel" (rect 59 70 75 84)(font "Arial" (font_size 8)))
		(text "sel" (rect 59 70 75 84)(font "Arial" (font_size 8)))
		(line (pt 56 88)(pt 56 72))
	)
	(port
		(pt 0 32)
		(input)
		(text "dataa[WIDTH-1..0]" (rect 6 19 108 33)(font "Arial" (font_size 8)))
		(text "dataa[]" (rect 6 19 44 33)(font "Arial" (font_size 8)))
		(line (pt 0 32)(pt 44 32)(line_width 3))
	)
	(port
		(pt 112 48)
		(output)
		(text "result[WIDTH-1..0]" (rect 75 35 177 49)(font "Arial" (font_size 8)))
		(text "result[]" (rect 75 35 113 49)(font "Arial" (font_size 8)))
		(line (pt 68 48)(pt 112 48)(line_width 3))
	)
	(parameter
		"WIDTH"
		"16"
		"Width of I/O, any integer > 0"
		" 1" " 2" " 3" " 4" " 5" " 6" " 7" " 8" " 9" "10" "11" "12" "13" "14" "15" "16" "20" "24" "28" "32" "40" "48" "56" "64" 
	)
	(drawing
		(text "0" (rect 52 31 56 41)(font "Arial" (font_size 6)))
		(text "1" (rect 52 55 56 65)(font "Arial" (font_size 6)))
		(line (pt 68 64)(pt 68 32))
		(line (pt 44 80)(pt 44 16))
		(line (pt 44 16)(pt 68 32))
		(line (pt 44 80)(pt 68 64))
	)
	(annotation_block (parameter)(rect 1296 184 1424 212))
)
(connector
	(pt 1080 264)
	(pt 1088 264)
	(bus)
)
(connector
	(pt 1080 280)
	(pt 1088 280)
	(bus)
)
(connector
	(pt 792 264)
	(pt 784 264)
	(bus)
)
(connector
	(pt 784 264)
	(pt 784 408)
	(bus)
)
(connector
	(pt 784 408)
	(pt 776 408)
	(bus)
)
(connector
	(pt 792 280)
	(pt 776 280)
	(bus)
)
(connector
	(pt 792 296)
	(pt 776 296)
	(bus)
)
(connector
	(pt 1368 392)
	(pt 1368 320)
)
(connector
	(pt 776 392)
	(pt 1368 392)
)
(connector
	(pt 1296 264)
	(pt 1312 264)
	(bus)
)
(connector
	(pt 1312 296)
	(pt 1304 296)
	(bus)
)
(connector
	(pt 1304 296)
	(pt 1304 320)
	(bus)
)
(connector
	(pt 1304 320)
	(pt 1296 320)
	(bus)
)
(connector
	(pt 1424 280)
	(pt 1440 280)
	(bus)
)
(connector
	(pt 1432 296)
	(pt 1440 296)
	(bus)
)
(connector
	(pt 1432 336)
	(pt 1432 296)
	(bus)
)
(connector
	(pt 776 376)
	(pt 1656 376)
)
(connector
	(pt 1648 280)
	(pt 1664 280)
	(bus)
)
(connector
	(pt 1656 264)
	(pt 1664 264)
)
(connector
	(pt 1656 376)
	(pt 1656 264)
)
(connector
	(pt 1872 232)
	(pt 1872 336)
	(bus)
)
(connector
	(pt 1432 336)
	(pt 1872 336)
	(bus)
)
(connector
	(pt 1864 232)
	(pt 1872 232)
	(bus)
)
(connector
	(pt 1872 232)
	(pt 1880 232)
	(bus)
)
(connector
	(pt 2048 232)
	(pt 2080 232)
	(bus)
)
(connector
	(pt 2072 200)
	(pt 2080 200)
)
(connector
	(pt 2072 360)
	(pt 2072 200)
)
(connector
	(pt 776 360)
	(pt 2072 360)
)
(connector
	(pt 2072 360)
	(pt 2080 360)
)
(connector
	(pt 2280 312)
	(pt 2288 312)
	(bus)
)
(connector
	(pt 2280 184)
	(pt 2288 184)
	(bus)
)
(junction (pt 1872 232))
(junction (pt 2072 360))
(text "Neuron" (rect 600 160 668 179)(font "Arial" (color 0 0 0)(font_size 12)(bold)))
